module gitlab.com/inorton/aftermath

require (
	cloud.google.com/go v0.34.0 // indirect
	github.com/denisenkom/go-mssqldb v0.0.0-20190111225525-2fea367d496d // indirect
	github.com/erikstmartin/go-testdb v0.0.0-20160219214506-8d10e4a1bae5 // indirect
	github.com/go-sql-driver/mysql v1.4.1 // indirect
	github.com/gofrs/uuid v3.2.0+incompatible // indirect
	github.com/google/go-cmp v0.2.0 // indirect
	github.com/jinzhu/gorm v1.9.2
	github.com/jinzhu/inflection v0.0.0-20180308033659-04140366298a // indirect
	github.com/jinzhu/now v0.0.0-20181116074157-8ec929ed50c3 // indirect
	github.com/lib/pq v1.0.0 // indirect
	github.com/mattn/go-sqlite3 v1.10.0 // indirect
	github.com/stretchr/testify v1.3.0
	golang.org/x/crypto v0.0.0-20190103213133-ff983b9c42bc // indirect
	google.golang.org/appengine v1.4.0 // indirect
)
